{
  "author": "Jens",
  "classifications": [ "Common", "Console", "C#8" ],
  "identity": "Template.CosProject",
  "name": "Cos Project",
  "shortName": "DefaultCos",
  "tags": {
    "language": "C#",
    "type": "project"
  },
  "sourceName": "DefaultCos.csproj"
}
  